INDEX VERSION 1.131+C:\Users\brand\Documents\TimeSubmit\.metadata\.plugins\org.eclipse.jdt.core
2211140569.index
3974820605.index
686253884.index
1720523893.index
35844516.index
1924658209.index
1165101305.index
2667024768.index
2612794595.index
2265450732.index
1001075669.index
400245114.index
4018288616.index
1610242526.index
3330828997.index
248348808.index
513392136.index
628220850.index
2635753376.index
2249956553.index
3776919183.index
2152120231.index
1463333055.index
2538428657.index
2951700368.index
1871998204.index
1679282239.index
2678077487.index
1911795669.index
1156262074.index
1220226696.index
1320864562.index
1963282628.index
713989214.index
2101574745.index
2826680313.index
3246646843.index
4245167823.index
496346216.index
2960766551.index
3539953273.index
2580951123.index
1966532802.index
4106564141.index
2471130543.index
1262642816.index
1141655887.index
1724777018.index
1109601852.index
1164116402.index
750691289.index
4224132738.index
849714314.index
3243141061.index
1041938253.index
2179624668.index
1305760640.index
408865649.index
773507041.index
1204146514.index
2675474385.index
2286760378.index
427219614.index
1475504579.index
3036807437.index
3298297436.index
4111999701.index
617852079.index
3807114341.index
620447494.index
2613800718.index
3628520973.index
1254609666.index
2596768689.index
733169123.index
2390069308.index
1319995345.index
3587347203.index
4285896760.index
432452911.index
1006900884.index
